%!PS-Adobe-3.0 EPSF-3.0
%%BoundingBox: 120 683 215 752
%%Title: buffon04
%%CreationDate: Mon Jul 21 17:53:57 2008
%%Creator: Tgif-4.1.45-QPL written by William Chia-Wei Cheng (bill.cheng@acm.org)
%%ProducedBy: (unknown)
%%Pages: 1
%%DocumentFonts: (atend)
%%EndComments
%%BeginProlog

/tgifdict 56 dict def
tgifdict begin

/tgifellipsedict 6 dict def
tgifellipsedict /mtrx matrix put

/TGEL % tgifellipse
 { tgifellipsedict begin
      /yrad exch def
      /xrad exch def
      /y exch def
      /x exch def
      /savematrix mtrx currentmatrix def
      x y translate
      xrad yrad scale
      0 0 1 0 360 arc
      savematrix setmatrix
   end
 } def

/tgifarcdict 8 dict def
tgifarcdict /mtrx matrix put

/TGAN % tgifarcn
 { tgifarcdict begin
      /endangle exch def
      /startangle exch def
      /yrad exch def
      /xrad exch def
      /y exch def
      /x exch def
      /savematrix mtrx currentmatrix def
      x y translate
      xrad yrad scale
      0 0 1 startangle endangle arc
      savematrix setmatrix
   end
 } def

/TGAR % tgifarc
 { tgifarcdict begin
      /endangle exch def
      /startangle exch def
      /yrad exch def
      /xrad exch def
      /y exch def
      /x exch def
      /savematrix mtrx currentmatrix def
      x y translate
      xrad yrad scale
      0 0 1 startangle endangle arcn
      savematrix setmatrix
   end
 } def

/TGMAX
 { exch dup 3 1 roll exch dup 3 1 roll gt { pop } { exch pop } ifelse
 } def
/TGMIN
 { exch dup 3 1 roll exch dup 3 1 roll lt { pop } { exch pop } ifelse
 } def
/TGSW { stringwidth pop } def

/bd { bind def } bind def

/GS { gsave } bd
/GR { grestore } bd
/NP { newpath } bd
/CP { closepath } bd
/CHP { charpath } bd
/CT { curveto } bd
/L { lineto } bd
/RL { rlineto } bd
/M { moveto } bd
/RM { rmoveto } bd
/S { stroke } bd
/F { fill } bd
/TR { translate } bd
/RO { rotate } bd
/SC { scale } bd
/MU { mul } bd
/DI { div } bd
/DU { dup } bd
/NE { neg } bd
/AD { add } bd
/SU { sub } bd
/PO { pop } bd
/EX { exch } bd
/CO { concat } bd
/CL { clip } bd
/EC { eoclip } bd
/EF { eofill } bd
/IM { image } bd
/IMM { imagemask } bd
/ARY { array } bd
/SG { setgray } bd
/RG { setrgbcolor } bd
/SD { setdash } bd
/W { setlinewidth } bd
/SM { setmiterlimit } bd
/SLC { setlinecap } bd
/SLJ { setlinejoin } bd
/SH { show } bd
/FF { findfont } bd
/MS { makefont setfont } bd
/AR { arcto 4 {pop} repeat } bd
/CURP { currentpoint } bd
/FLAT { flattenpath strokepath clip newpath } bd
/TGSM { tgiforigctm setmatrix } def
/TGRM { savematrix setmatrix } def

end

%%EndProlog
%%Page: 1 1

%%PageBoundingBox: 120 683 215 752
tgifdict begin
/tgifsavedpage save def

1 SM
1 W

0 SG

72 0 MU 72 11.602 MU TR
72 128 DI 100.000 MU 100 DI DU NE SC

GS

/tgiforigctm matrix currentmatrix def

% POLY/OPEN-SPLINE
0 SG
GS
   309 204 TR
   [-0.839 0.545 -0.545 -0.839 0 -31] CO
   309 NE 204 NE TR
GS
   NP
      309 204 M
      409 204 L
   TGSM
   3 W
   S
   1 W
GR
GR

% OVAL
GS
   359 202 TR
   [-0.691 0.416 -0.449 -0.641 -87 0] CO
   359 NE 202 NE TR
0 SG
NP 365 208 6 6 TGEL F
GS
   GS
      NP 365 208 6 6 TGEL
      TGSM
      3 W
      S
   GR
GR
GR

% POLY/OPEN-SPLINE
0 SG
GS
   NP
      267 200 M
      310 200 L
   TGSM
   1 W
   S
GR

% TEXT
NP
0 SG
   GS
      1 W
      256 182 M
      GS
            0 SG
            /Symbol FF [24 0 0 -24 0 0] MS
            (a) SH
      GR
   GR

% TEXT
NP
0 SG
   GS
      1 W
      312 259 M
      GS
            0 SG
            /Helvetica FF [24 0 0 -24 0 0] MS
            (cos\() SH
            0 SG
            /Symbol FF [24 0 0 -24 0 0] MS
            (a) SH
            0 SG
            /Helvetica FF [24 0 0 -24 0 0] MS
            (\)) SH
      GR
   GR

% OVAL
0 SG
GS
   GS
      NP 267 200 50 50 TGEL
      S
   GR
GR

% POLY/OPEN-SPLINE
0 SG
GS
   NP
      310 200 M
      310 174 L
   TGSM
   1 W
   S
GR

% ARC
0 SG
GS
   GS
      NP
         266 200 24 24 0 -30 TGAR
      S
   GR
GR

% POLY/OPEN-SPLINE
0 SG
GS
   NP
      271 186 M
      281 196 L
   TGSM
   1 W
   S
GR

% POLY/OPEN-SPLINE
0 SG
GS
   NP
      295 202 M
      308 249 L
   TGSM
   1 W
   S
GR

GR
tgifsavedpage restore
end
showpage

%%Trailer
%MatchingCreationDate: Mon Jul 21 17:53:57 2008
%%DocumentFonts: Helvetica
%%+ Symbol
%%EOF
