%TGIF 4.1.45-QPL
state(0,37,100.000,0,0,0,16,0,9,1,1,0,0,0,0,1,0,'Helvetica',0,115200,0,0,1,10,0,0,1,1,0,16,0,0,1,1,1,1,1050,1485,1,0,224,0).
%
% @(#)$Header$
% %W%
%
unit("1 pixel/pixel").
color_info(19,65535,0,[
	"magenta", 65535, 0, 65535, 65535, 0, 65535, 1,
	"red", 65535, 0, 0, 65535, 0, 0, 1,
	"green", 0, 65535, 0, 0, 65535, 0, 1,
	"blue", 0, 0, 65535, 0, 0, 65535, 1,
	"yellow", 65535, 65535, 0, 65535, 65535, 0, 1,
	"pink", 65535, 49344, 52171, 65535, 49344, 52171, 1,
	"cyan", 0, 65535, 65535, 0, 65535, 65535, 1,
	"CadetBlue", 24415, 40606, 41120, 24415, 40606, 41120, 1,
	"white", 65535, 65535, 65535, 65535, 65535, 65535, 1,
	"black", 0, 0, 0, 0, 0, 0, 1,
	"DarkSlateGray", 12079, 20303, 20303, 12079, 20303, 20303, 1,
	"#00000000c000", 0, 0, 49344, 0, 0, 49152, 1,
	"#820782070000", 33410, 33410, 0, 33287, 33287, 0, 1,
	"#3cf3fbee34d2", 15420, 64507, 13364, 15603, 64494, 13522, 1,
	"#3cf3fbed34d3", 15420, 64507, 13364, 15603, 64493, 13523, 1,
	"#ffffa6990000", 65535, 42662, 0, 65535, 42649, 0, 1,
	"#ffff0000fffe", 65535, 0, 65535, 65535, 0, 65534, 1,
	"#fffe0000fffe", 65535, 0, 65535, 65534, 0, 65534, 1,
	"#fffe00000000", 65535, 0, 0, 65534, 0, 0, 1
]).
script_frac("0.6").
fg_bg_colors('black','white').
dont_reencode("FFDingbests:ZapfDingbats").
objshadow_info('#c0c0c0',2,2).
page(1,"",1,'').
box('black','',100,100,400,300,0,2,1,600,0,0,0,0,0,'2',0,[
]).
poly('black','',2,[
	400,300,450,300],1,2,1,601,0,0,0,0,0,0,0,'2',0,0,
    "0","",[
    0,10,4,0,'10','4','0'],[0,10,4,0,'10','4','0'],[
]).
poly('black','',2,[
	100,100,100,50],1,2,1,602,0,0,0,0,0,0,0,'2',0,0,
    "0","",[
    0,10,4,0,'10','4','0'],[0,10,4,0,'10','4','0'],[
]).
text('black',440,306,1,0,1,16,32,606,24,8,0,0,0,0,2,16,32,0,0,"",0,0,0,0,330,'',[
minilines(16,32,0,0,0,0,0,[
mini_line(16,24,8,0,0,0,[
str_block(0,16,24,8,0,-1,0,0,0,[
str_seg('black','Symbol',0,138240,16,24,8,0,-1,0,0,0,0,0,
	"a")])
])
])]).
text('black',70,46,1,0,1,12,29,608,24,5,0,0,0,0,2,12,29,0,0,"",0,0,0,0,70,'',[
minilines(12,29,0,0,0,0,0,[
mini_line(12,24,5,0,0,0,[
str_block(0,12,24,5,0,-1,0,0,0,[
str_seg('black','Helvetica',0,138240,12,24,5,0,-1,0,0,0,0,0,
	"x")])
])
])]).
text('black',80,306,1,0,1,13,29,610,24,5,0,0,0,0,2,13,29,0,0,"",0,0,0,0,330,'',[
minilines(13,29,0,0,0,0,0,[
mini_line(13,24,5,0,0,0,[
str_block(0,13,24,5,0,-1,0,0,0,[
str_seg('black','Helvetica',0,138240,13,24,5,0,-1,0,0,0,0,0,
	"0")])
])
])]).
text('black',70,96,1,0,1,13,29,612,24,5,0,0,0,0,2,13,29,0,0,"",0,0,0,0,120,'',[
minilines(13,29,0,0,0,0,0,[
mini_line(13,24,5,0,0,0,[
str_block(0,13,24,5,0,-5,0,0,0,[
str_seg('black','Helvetica',0,138240,13,24,5,0,-5,0,0,0,0,0,
	"1")])
])
])]).
text('black',380,306,1,0,1,33,32,614,24,8,0,0,0,0,2,33,32,0,0,"",0,0,0,0,330,'',[
minilines(33,32,0,0,0,0,0,[
mini_line(33,24,8,0,0,0,[
str_block(0,33,24,8,0,-1,0,0,0,[
str_seg('black','Symbol',0,138240,33,24,8,0,-1,0,0,0,0,0,
	"p/2")])
])
])]).
oval('black','',176,161,188,172,1,2,1,616,0,0,0,0,0,'2',0,[
]).
