%!PS-Adobe-3.0 EPSF-3.0
%%BoundingBox: 37 643 258 811
%%Title: buffon03
%%CreationDate: Mon Jul 21 16:44:36 2008
%%Creator: Tgif-4.1.45-QPL written by William Chia-Wei Cheng (bill.cheng@acm.org)
%%ProducedBy: (unknown)
%%Pages: 1
%%DocumentFonts: (atend)
%%EndComments
%%BeginProlog

/tgifdict 55 dict def
tgifdict begin

/tgifellipsedict 6 dict def
tgifellipsedict /mtrx matrix put

/TGEL % tgifellipse
 { tgifellipsedict begin
      /yrad exch def
      /xrad exch def
      /y exch def
      /x exch def
      /savematrix mtrx currentmatrix def
      x y translate
      xrad yrad scale
      0 0 1 0 360 arc
      savematrix setmatrix
   end
 } def

/tgifarrowtipdict 8 dict def
tgifarrowtipdict /mtrx matrix put

/TGAT % tgifarrowtip
 { tgifarrowtipdict begin
      /dy exch def
      /dx exch def
      /h exch def
      /w exch def
      /y exch def
      /x exch def
      /savematrix mtrx currentmatrix def
      x y translate
      dy dx atan rotate
      0 0 moveto
      w neg h lineto
      w neg h neg lineto
      savematrix setmatrix
   end
 } def

/TGMAX
 { exch dup 3 1 roll exch dup 3 1 roll gt { pop } { exch pop } ifelse
 } def
/TGMIN
 { exch dup 3 1 roll exch dup 3 1 roll lt { pop } { exch pop } ifelse
 } def
/TGSW { stringwidth pop } def

/bd { bind def } bind def

/GS { gsave } bd
/GR { grestore } bd
/NP { newpath } bd
/CP { closepath } bd
/CHP { charpath } bd
/CT { curveto } bd
/L { lineto } bd
/RL { rlineto } bd
/M { moveto } bd
/RM { rmoveto } bd
/S { stroke } bd
/F { fill } bd
/TR { translate } bd
/RO { rotate } bd
/SC { scale } bd
/MU { mul } bd
/DI { div } bd
/DU { dup } bd
/NE { neg } bd
/AD { add } bd
/SU { sub } bd
/PO { pop } bd
/EX { exch } bd
/CO { concat } bd
/CL { clip } bd
/EC { eoclip } bd
/EF { eofill } bd
/IM { image } bd
/IMM { imagemask } bd
/ARY { array } bd
/SG { setgray } bd
/RG { setrgbcolor } bd
/SD { setdash } bd
/W { setlinewidth } bd
/SM { setmiterlimit } bd
/SLC { setlinecap } bd
/SLJ { setlinejoin } bd
/SH { show } bd
/FF { findfont } bd
/MS { makefont setfont } bd
/AR { arcto 4 {pop} repeat } bd
/CURP { currentpoint } bd
/FLAT { flattenpath strokepath clip newpath } bd
/TGSM { tgiforigctm setmatrix } def
/TGRM { savematrix setmatrix } def

end

%%EndProlog
%%Page: 1 1

%%PageBoundingBox: 37 643 258 811
tgifdict begin
/tgifsavedpage save def

1 SM
1 W

0 SG

72 0 MU 72 11.602 MU TR
72 128 DI 100.000 MU 100 DI DU NE SC

GS

/tgiforigctm matrix currentmatrix def

% BOX
0 SG
GS
   10 SM
   GS
      NP 100 100 M 400 100 L 400 300 L 100 300 L CP
      2 W
      S
   GR
GR

% POLY/OPEN-SPLINE
0 SG
GS
   NP
      400 300 M
      0 50 atan DU cos 10.000 MU 450 exch SU
      exch sin 10.000 MU 300 exch SU L
   TGSM
   2 W
   S
   1 W
GR
GS
   TGSM
   NP
      450 300 10.000 4.000 50 0 TGAT
   1 SG CP F
   0 SG
   NP
      450 300 10.000 4.000 50 0 TGAT
   CP F
GR

% POLY/OPEN-SPLINE
0 SG
GS
   NP
      100 100 M
      -50 0 atan DU cos 10.000 MU 100 exch SU
      exch sin 10.000 MU 50 exch SU L
   TGSM
   2 W
   S
   1 W
GR
GS
   TGSM
   NP
      100 50 10.000 4.000 0 -50 TGAT
   1 SG CP F
   0 SG
   NP
      100 50 10.000 4.000 0 -50 TGAT
   CP F
GR

% TEXT
NP
0 SG
   GS
      1 W
      440 330 M
      GS
            0 SG
            /Symbol FF [24 0 0 -24 0 0] MS
            (a) SH
      GR
   GR

% TEXT
NP
0 SG
   GS
      1 W
      70 70 M
      GS
            0 SG
            /Helvetica FF [24 0 0 -24 0 0] MS
            (x) SH
      GR
   GR

% TEXT
NP
0 SG
   GS
      1 W
      80 330 M
      GS
            0 SG
            /Helvetica FF [24 0 0 -24 0 0] MS
            (0) SH
      GR
   GR

% TEXT
NP
0 SG
   GS
      1 W
      70 120 M
      GS
            0 SG
            /Helvetica FF [24 0 0 -24 0 0] MS
            (1) SH
      GR
   GR

% TEXT
NP
0 SG
   GS
      1 W
      380 330 M
      GS
            0 SG
            /Symbol FF [24 0 0 -24 0 0] MS
            (p/2) SH
      GR
   GR

% OVAL
0 SG
NP 182 166 6 5 TGEL F
GS
   GS
      NP 182 166 6 5 TGEL
      2 W
      S
   GR
GR

GR
tgifsavedpage restore
end
showpage

%%Trailer
%MatchingCreationDate: Mon Jul 21 16:44:36 2008
%%DocumentFonts: Helvetica
%%+ Symbol
%%EOF
