%!PS-Adobe-3.0 EPSF-3.0
%%BoundingBox: 37 643 258 811
%%Title: buffon05
%%CreationDate: Mon Jul 21 17:54:03 2008
%%Creator: Tgif-4.1.45-QPL written by William Chia-Wei Cheng (bill.cheng@acm.org)
%%ProducedBy: (unknown)
%%Pages: 1
%%DocumentFonts: (atend)
%%EndComments
%%BeginProlog

/tgifdict 86 dict def
tgifdict begin

/tgifarrowtipdict 8 dict def
tgifarrowtipdict /mtrx matrix put

/TGAT % tgifarrowtip
 { tgifarrowtipdict begin
      /dy exch def
      /dx exch def
      /h exch def
      /w exch def
      /y exch def
      /x exch def
      /savematrix mtrx currentmatrix def
      x y translate
      dy dx atan rotate
      0 0 moveto
      w neg h lineto
      w neg h neg lineto
      savematrix setmatrix
   end
 } def

/tgifpatdict 10 dict def

/tgifpatbyte
 { currentdict /retstr get exch
   pat i cellsz mod get put
 } def

/tgifpatproc
 { 0 1 widthlim {tgifpatbyte} for retstr
   /i i 1 add def
 } def

/TGPF % tgifpatfill
 { tgifpatdict begin
      /h exch def
      /w exch def
      /lty exch def
      /ltx exch def
      /cellsz exch def
      /pat exch def

      /widthlim w cellsz div cvi 1 sub def
      /retstr widthlim 1 add string def
      /i 0 def

      tgiforigctm setmatrix
      ltx lty translate
      w h true [1 0 0 1 0 0] {tgifpatproc} imagemask
      ltx neg lty neg translate
   end
 } def

/pat3 <8000000008000000> def
/pat4 <8800000022000000> def
/pat5 <8800220088002200> def
/pat6 <8822882288228822> def
/pat7 <aa55aa55aa55aa55> def
/pat8 <77dd77dd77dd77dd> def
/pat9 <77ffddff77ffddff> def
/pat10 <77ffffff77ffffff> def
/pat11 <7fffffff7fffffff> def
/pat12 <8040200002040800> def
/pat13 <40a00000040a0000> def
/pat14 <ff888888ff888888> def
/pat15 <ff808080ff080808> def
/pat16 <f87422478f172271> def
/pat17 <038448300c020101> def
/pat18 <081c22c180010204> def
/pat19 <8080413e080814e3> def
/pat20 <8040201008040201> def
/pat21 <8844221188442211> def
/pat22 <77bbddee77bbddee> def
/pat23 <c1e070381c0e0783> def
/pat24 <7fbfdfeff7fbfdfe> def
/pat25 <3e1f8fc7e3f1f87c> def
/pat26 <0102040810204080> def
/pat27 <1122448811224488> def
/pat28 <eeddbb77eeddbb77> def
/pat29 <83070e1c3870e0c1> def
/pat30 <fefdfbf7efdfbf7f> def
/pat31 <7cf8f1e3c78f1f3e> def

/TGMAX
 { exch dup 3 1 roll exch dup 3 1 roll gt { pop } { exch pop } ifelse
 } def
/TGMIN
 { exch dup 3 1 roll exch dup 3 1 roll lt { pop } { exch pop } ifelse
 } def
/TGSW { stringwidth pop } def

/bd { bind def } bind def

/GS { gsave } bd
/GR { grestore } bd
/NP { newpath } bd
/CP { closepath } bd
/CHP { charpath } bd
/CT { curveto } bd
/L { lineto } bd
/RL { rlineto } bd
/M { moveto } bd
/RM { rmoveto } bd
/S { stroke } bd
/F { fill } bd
/TR { translate } bd
/RO { rotate } bd
/SC { scale } bd
/MU { mul } bd
/DI { div } bd
/DU { dup } bd
/NE { neg } bd
/AD { add } bd
/SU { sub } bd
/PO { pop } bd
/EX { exch } bd
/CO { concat } bd
/CL { clip } bd
/EC { eoclip } bd
/EF { eofill } bd
/IM { image } bd
/IMM { imagemask } bd
/ARY { array } bd
/SG { setgray } bd
/RG { setrgbcolor } bd
/SD { setdash } bd
/W { setlinewidth } bd
/SM { setmiterlimit } bd
/SLC { setlinecap } bd
/SLJ { setlinejoin } bd
/SH { show } bd
/FF { findfont } bd
/MS { makefont setfont } bd
/AR { arcto 4 {pop} repeat } bd
/CURP { currentpoint } bd
/FLAT { flattenpath strokepath clip newpath } bd
/TGSM { tgiforigctm setmatrix } def
/TGRM { savematrix setmatrix } def

end

%%EndProlog
%%Page: 1 1

%%PageBoundingBox: 37 643 258 811
tgifdict begin
/tgifsavedpage save def

1 SM
1 W

0 SG

72 0 MU 72 11.602 MU TR
72 128 DI 100.000 MU 100 DI DU NE SC

GS

/tgiforigctm matrix currentmatrix def

% BOX
0 SG
GS
   10 SM
   GS
      NP 100 100 M 400 100 L 400 300 L 100 300 L CP
      2 W
      S
   GR
GR

% POLY/OPEN-SPLINE
0 SG
GS
   NP
      400 300 M
      0 50 atan DU cos 10.000 MU 450 exch SU
      exch sin 10.000 MU 300 exch SU L
   TGSM
   2 W
   S
   1 W
GR
GS
   TGSM
   NP
      450 300 10.000 4.000 50 0 TGAT
   1 SG CP F
   0 SG
   NP
      450 300 10.000 4.000 50 0 TGAT
   CP F
GR

% POLY/OPEN-SPLINE
0 SG
GS
   NP
      100 100 M
      -50 0 atan DU cos 10.000 MU 100 exch SU
      exch sin 10.000 MU 50 exch SU L
   TGSM
   2 W
   S
   1 W
GR
GS
   TGSM
   NP
      100 50 10.000 4.000 0 -50 TGAT
   1 SG CP F
   0 SG
   NP
      100 50 10.000 4.000 0 -50 TGAT
   CP F
GR

% TEXT
NP
0 SG
   GS
      1 W
      440 330 M
      GS
            0 SG
            /Symbol FF [24 0 0 -24 0 0] MS
            (a) SH
      GR
   GR

% TEXT
NP
0 SG
   GS
      1 W
      70 70 M
      GS
            0 SG
            /Helvetica FF [24 0 0 -24 0 0] MS
            (x) SH
      GR
   GR

% TEXT
NP
0 SG
   GS
      1 W
      80 330 M
      GS
            0 SG
            /Helvetica FF [24 0 0 -24 0 0] MS
            (0) SH
      GR
   GR

% TEXT
NP
0 SG
   GS
      1 W
      70 120 M
      GS
            0 SG
            /Helvetica FF [24 0 0 -24 0 0] MS
            (1) SH
      GR
   GR

% TEXT
NP
0 SG
   GS
      1 W
      380 330 M
      GS
            0 SG
            /Symbol FF [24 0 0 -24 0 0] MS
            (p/2) SH
      GR
   GR

% POLY/OPEN-SPLINE
0 SG
GS
   NP
      100 100 M
      154.67 104.00 197.83 113.83 229.50 129.50 CT
      261.17 145.17 285.83 160.50 303.50 175.50 CT
      321.17 190.50 339.83 208.50 359.50 229.50 CT
      379.17 250.50 392.67 274.00
      400 300 CT
   CP 1 SG EF
   0 SG
   NP
      100 100 M
      154.67 104.00 197.83 113.83 229.50 129.50 CT
      261.17 145.17 285.83 160.50 303.50 175.50 CT
      321.17 190.50 339.83 208.50 359.50 229.50 CT
      379.17 250.50 392.67 274.00
      400 300 CT
   CP EC NP
   pat6 8 96 96 312 208 TGPF
GR
GS
   NP
      100 100 M
      154.67 104.00 197.83 113.83 229.50 129.50 CT
      261.17 145.17 285.83 160.50 303.50 175.50 CT
      321.17 190.50 339.83 208.50 359.50 229.50 CT
      379.17 250.50 392.67 274.00
      400 300 CT
   TGSM
   3 W
   S
   1 W
GR

% POLYGON/CLOSED-SPLINE
0 SG
NP
   100 100 M
   100 300 L
   400 300 L
CP
GS
   EC NP
   pat6 8 96 96 312 208 TGPF
GR

% TEXT
NP
0 SG
   GS
      1 W
      280 150 M
      GS
            0 SG
            /Helvetica FF [24 0 0 -24 0 0] MS
            (cos\() SH
            0 SG
            /Symbol FF [24 0 0 -24 0 0] MS
            (a) SH
            0 SG
            /Helvetica FF [24 0 0 -24 0 0] MS
            (\)) SH
      GR
   GR

GR
tgifsavedpage restore
end
showpage

%%Trailer
%MatchingCreationDate: Mon Jul 21 17:54:03 2008
%%DocumentFonts: Helvetica
%%+ Symbol
%%EOF
