%!PS-Adobe-3.0 EPSF-3.0
%%BoundingBox: 54 552 339 808
%%Title: buffon01
%%CreationDate: Mon Jul 21 16:09:47 2008
%%Creator: Tgif-4.1.45-QPL written by William Chia-Wei Cheng (bill.cheng@acm.org)
%%ProducedBy: (unknown)
%%Pages: 1
%%DocumentFonts: (atend)
%%EndComments
%%BeginProlog

/tgifdict 48 dict def
tgifdict begin

/bd { bind def } bind def

/GS { gsave } bd
/GR { grestore } bd
/NP { newpath } bd
/CP { closepath } bd
/CHP { charpath } bd
/CT { curveto } bd
/L { lineto } bd
/RL { rlineto } bd
/M { moveto } bd
/RM { rmoveto } bd
/S { stroke } bd
/F { fill } bd
/TR { translate } bd
/RO { rotate } bd
/SC { scale } bd
/MU { mul } bd
/DI { div } bd
/DU { dup } bd
/NE { neg } bd
/AD { add } bd
/SU { sub } bd
/PO { pop } bd
/EX { exch } bd
/CO { concat } bd
/CL { clip } bd
/EC { eoclip } bd
/EF { eofill } bd
/IM { image } bd
/IMM { imagemask } bd
/ARY { array } bd
/SG { setgray } bd
/RG { setrgbcolor } bd
/SD { setdash } bd
/W { setlinewidth } bd
/SM { setmiterlimit } bd
/SLC { setlinecap } bd
/SLJ { setlinejoin } bd
/SH { show } bd
/FF { findfont } bd
/MS { makefont setfont } bd
/AR { arcto 4 {pop} repeat } bd
/CURP { currentpoint } bd
/FLAT { flattenpath strokepath clip newpath } bd
/TGSM { tgiforigctm setmatrix } def
/TGRM { savematrix setmatrix } def

end

%%EndProlog
%%Page: 1 1

%%PageBoundingBox: 54 552 339 808
tgifdict begin
/tgifsavedpage save def

1 SM
1 W

0 SG

72 0 MU 72 11.602 MU TR
72 128 DI 100.000 MU 100 DI DU NE SC

GS

/tgiforigctm matrix currentmatrix def

% POLY/OPEN-SPLINE
0 SG
GS
   NP
      100 50 M
      100 500 L
   TGSM
   2 W
   S
   1 W
GR

% POLY/OPEN-SPLINE
0 SG
GS
   NP
      200 50 M
      200 500 L
   TGSM
   2 W
   S
   1 W
GR

% POLY/OPEN-SPLINE
0 SG
GS
   NP
      300 50 M
      300 500 L
   TGSM
   2 W
   S
   1 W
GR

% POLY/OPEN-SPLINE
0 SG
GS
   NP
      400 50 M
      400 500 L
   TGSM
   2 W
   S
   1 W
GR

% POLY/OPEN-SPLINE
0 SG
GS
   NP
      500 50 M
      500 500 L
   TGSM
   2 W
   S
   1 W
GR

% POLY/OPEN-SPLINE
0 SG
GS
   NP
      600 50 M
      600 500 L
   TGSM
   2 W
   S
   1 W
GR

% POLY/OPEN-SPLINE
0 SG
GS
   198 130 TR
   [-0.629 0.777 -0.777 -0.629 15 -40] CO
   198 NE 130 NE TR
GS
   NP
      198 130 M
      298 130 L
   TGSM
   6 W
   S
   1 W
GR
GR

% POLY/OPEN-SPLINE
0 SG
GS
   197 410 TR
   [-0.537 -0.843 0.843 -0.537 -30 41] CO
   197 NE 410 NE TR
GS
   NP
      197 410 M
      297 410 L
   TGSM
   6 W
   S
   1 W
GR
GR

% POLY/OPEN-SPLINE
0 SG
GS
   537 140 TR
   [0.998 -0.061 0.061 0.998 -185 -1] CO
   537 NE 140 NE TR
GS
   NP
      537 140 M
      637 140 L
   TGSM
   6 W
   S
   1 W
GR
GR

% POLY/OPEN-SPLINE
0 SG
GS
   276 290 TR
   [-0.375 -0.927 0.927 -0.375 -46 44] CO
   276 NE 290 NE TR
GS
   NP
      276 290 M
      376 290 L
   TGSM
   6 W
   S
   1 W
GR
GR

% POLY/OPEN-SPLINE
0 SG
GS
   475 440 TR
   [-0.588 -0.809 0.809 -0.588 -25 39] CO
   475 NE 440 NE TR
GS
   NP
      475 440 M
      575 440 L
   TGSM
   6 W
   S
   1 W
GR
GR

% POLY/OPEN-SPLINE
0 SG
GS
   526 226 TR
   [0.105 0.995 -0.995 0.105 0 -52] CO
   526 NE 226 NE TR
GS
   NP
      526 226 M
      626 226 L
   TGSM
   6 W
   S
   1 W
GR
GR

% POLY/OPEN-SPLINE
0 SG
GS
   469 426 TR
   [0.937 -0.350 0.350 0.937 -193 12] CO
   469 NE 426 NE TR
GS
   NP
      469 426 M
      569 426 L
   TGSM
   6 W
   S
   1 W
GR
GR

% POLY/OPEN-SPLINE
0 SG
GS
   342 256 TR
   [0.783 0.623 -0.623 0.783 0 -33] CO
   342 NE 256 NE TR
GS
   NP
      342 256 M
      442 256 L
   TGSM
   6 W
   S
   1 W
GR
GR

% POLY/OPEN-SPLINE
0 SG
GS
   657 410 TR
   [0.609 -0.793 0.793 0.609 -145 36] CO
   657 NE 410 NE TR
GS
   NP
      657 410 M
      757 410 L
   TGSM
   6 W
   S
   1 W
GR
GR

% POLY/OPEN-SPLINE
0 SG
GS
   249 196 TR
   [0.044 0.999 -0.999 0.044 0 -52] CO
   249 NE 196 NE TR
GS
   NP
      249 196 M
      349 196 L
   TGSM
   6 W
   S
   1 W
GR
GR

GR
tgifsavedpage restore
end
showpage

%%Trailer
%MatchingCreationDate: Mon Jul 21 16:09:47 2008
%%DocumentFonts: 
%%EOF
