%!PS-Adobe-3.0 EPSF-3.0
%%BoundingBox: 54 665 339 780
%%Title: buffon02
%%CreationDate: Mon Jul 21 16:34:06 2008
%%Creator: Tgif-4.1.45-QPL written by William Chia-Wei Cheng (bill.cheng@acm.org)
%%ProducedBy: (unknown)
%%Pages: 1
%%DocumentFonts: (atend)
%%EndComments
%%BeginProlog

/tgifdict 58 dict def
tgifdict begin

/tgifellipsedict 6 dict def
tgifellipsedict /mtrx matrix put

/TGEL % tgifellipse
 { tgifellipsedict begin
      /yrad exch def
      /xrad exch def
      /y exch def
      /x exch def
      /savematrix mtrx currentmatrix def
      x y translate
      xrad yrad scale
      0 0 1 0 360 arc
      savematrix setmatrix
   end
 } def

/tgifarrowtipdict 8 dict def
tgifarrowtipdict /mtrx matrix put

/TGAT % tgifarrowtip
 { tgifarrowtipdict begin
      /dy exch def
      /dx exch def
      /h exch def
      /w exch def
      /y exch def
      /x exch def
      /savematrix mtrx currentmatrix def
      x y translate
      dy dx atan rotate
      0 0 moveto
      w neg h lineto
      w neg h neg lineto
      savematrix setmatrix
   end
 } def

/tgifarcdict 8 dict def
tgifarcdict /mtrx matrix put

/TGAN % tgifarcn
 { tgifarcdict begin
      /endangle exch def
      /startangle exch def
      /yrad exch def
      /xrad exch def
      /y exch def
      /x exch def
      /savematrix mtrx currentmatrix def
      x y translate
      xrad yrad scale
      0 0 1 startangle endangle arc
      savematrix setmatrix
   end
 } def

/TGAR % tgifarc
 { tgifarcdict begin
      /endangle exch def
      /startangle exch def
      /yrad exch def
      /xrad exch def
      /y exch def
      /x exch def
      /savematrix mtrx currentmatrix def
      x y translate
      xrad yrad scale
      0 0 1 startangle endangle arcn
      savematrix setmatrix
   end
 } def

/TGMAX
 { exch dup 3 1 roll exch dup 3 1 roll gt { pop } { exch pop } ifelse
 } def
/TGMIN
 { exch dup 3 1 roll exch dup 3 1 roll lt { pop } { exch pop } ifelse
 } def
/TGSW { stringwidth pop } def

/bd { bind def } bind def

/GS { gsave } bd
/GR { grestore } bd
/NP { newpath } bd
/CP { closepath } bd
/CHP { charpath } bd
/CT { curveto } bd
/L { lineto } bd
/RL { rlineto } bd
/M { moveto } bd
/RM { rmoveto } bd
/S { stroke } bd
/F { fill } bd
/TR { translate } bd
/RO { rotate } bd
/SC { scale } bd
/MU { mul } bd
/DI { div } bd
/DU { dup } bd
/NE { neg } bd
/AD { add } bd
/SU { sub } bd
/PO { pop } bd
/EX { exch } bd
/CO { concat } bd
/CL { clip } bd
/EC { eoclip } bd
/EF { eofill } bd
/IM { image } bd
/IMM { imagemask } bd
/ARY { array } bd
/SG { setgray } bd
/RG { setrgbcolor } bd
/SD { setdash } bd
/W { setlinewidth } bd
/SM { setmiterlimit } bd
/SLC { setlinecap } bd
/SLJ { setlinejoin } bd
/SH { show } bd
/FF { findfont } bd
/MS { makefont setfont } bd
/AR { arcto 4 {pop} repeat } bd
/CURP { currentpoint } bd
/FLAT { flattenpath strokepath clip newpath } bd
/TGSM { tgiforigctm setmatrix } def
/TGRM { savematrix setmatrix } def

end

%%EndProlog
%%Page: 1 1

%%PageBoundingBox: 54 665 339 780
tgifdict begin
/tgifsavedpage save def

1 SM
1 W

0 SG

72 0 MU 72 11.602 MU TR
72 128 DI 100.000 MU 100 DI DU NE SC

GS

/tgiforigctm matrix currentmatrix def

% POLY/OPEN-SPLINE
0 SG
GS
   NP
      100 100 M
      100 300 L
   TGSM
   2 W
   S
   1 W
GR

% POLY/OPEN-SPLINE
0 SG
GS
   309 204 TR
   [-0.839 0.545 -0.545 -0.839 0 -31] CO
   309 NE 204 NE TR
GS
   NP
      309 204 M
      409 204 L
   TGSM
   3 W
   S
   1 W
GR
GR

% OVAL
GS
   359 202 TR
   [-0.691 0.416 -0.449 -0.641 -87 0] CO
   359 NE 202 NE TR
0 SG
NP 365 208 6 6 TGEL F
GS
   GS
      NP 365 208 6 6 TGEL
      TGSM
      3 W
      S
   GR
GR
GR

% POLY/OPEN-SPLINE
0 SG
GS
   NP
      266 224 M
      0 33 atan DU cos 8.000 MU exch sin 8.000 MU RM
      0 33 atan DU cos 8.000 MU 299 exch SU
      exch sin 8.000 MU 224 exch SU L
   TGSM
   1 W
   S
GR
GS
   TGSM
   NP
      266 224 8.000 3.000 -33 0 TGAT
   1 SG CP F
   0 SG
   NP
      266 224 8.000 3.000 -33 0 TGAT
   CP F
GR
GS
   TGSM
   NP
      299 224 8.000 3.000 33 0 TGAT
   1 SG CP F
   0 SG
   NP
      299 224 8.000 3.000 33 0 TGAT
   CP F
GR

% TEXT
NP
0 SG
   GS
      1 W
      277 251 M
      GS
            0 SG
            /Helvetica FF [24 0 0 -24 0 0] MS
            (x) SH
      GR
   GR

% ARC
0 SG
GS
   GS
      NP
         266 201 45 45 0 -25 TGAR
      S
   GR
GR
GS
   TGSM
   NP
      304 177 8.000 3.000 -48 -76 TGAT
   1 SG CP F
   0 SG
   NP
      304 177 8.000 3.000 -48 -76 TGAT
   CP F
GR

% TEXT
NP
0 SG
   GS
      1 W
      318 198 M
      GS
            0 SG
            /Symbol FF [24 0 0 -24 0 0] MS
            (a) SH
      GR
   GR

% POLY/OPEN-SPLINE
0 SG
GS
   NP
      200 100 M
      200 300 L
   TGSM
   2 W
   S
   1 W
GR

% POLY/OPEN-SPLINE
0 SG
GS
   NP
      300 100 M
      300 300 L
   TGSM
   2 W
   S
   1 W
GR

% POLY/OPEN-SPLINE
0 SG
GS
   NP
      400 100 M
      400 300 L
   TGSM
   2 W
   S
   1 W
GR

% POLY/OPEN-SPLINE
0 SG
GS
   NP
      500 100 M
      500 300 L
   TGSM
   2 W
   S
   1 W
GR

% POLY/OPEN-SPLINE
0 SG
GS
   NP
      600 100 M
      600 300 L
   TGSM
   2 W
   S
   1 W
GR

GR
tgifsavedpage restore
end
showpage

%%Trailer
%MatchingCreationDate: Mon Jul 21 16:34:06 2008
%%DocumentFonts: Symbol
%%+ Helvetica
%%EOF
